<svg width="100" height="100" viewBox="0 0 100 100" fill="none" xmlns="http://www.w3.org/2000/svg">
<path d="M30.9691 58.1275C32.2287 58.1275 33.4888 57.6474 34.4504 56.6858C36.3737 54.7624 36.3738 51.645 34.4504 49.7231C33.4887 48.7615 32.2286 48.2814 30.9691 48.2814C29.7096 48.2814 28.4495 48.7615 27.4878 49.7232C25.5645 51.6464 25.5644 54.7639 27.4878 56.6858C28.4495 57.6474 29.7096 58.1275 30.9691 58.1275ZM28.2247 50.4585C28.9585 49.7248 29.9327 49.3211 30.9706 49.3211C32.0084 49.3211 32.9827 49.7248 33.7165 50.4585C34.4503 51.1923 34.854 52.1666 34.854 53.2045C34.854 54.2423 34.4503 55.2165 33.7166 55.9503C32.9812 56.6827 32.0069 57.0864 30.9691 57.0864C29.9313 57.0864 28.957 56.6827 28.2232 55.9489C26.7106 54.4362 26.7105 51.9727 28.2247 50.4585Z" fill="#224089" stroke="#353939" stroke-width="0.3"/>
<path d="M43.0666 46.6014L43.0666 46.6015C42.3328 47.3353 41.3585 47.7389 40.3207 47.7389C39.2828 47.7389 38.3086 47.3353 37.5748 46.6015L37.5747 46.6014C36.0606 45.0888 36.0606 42.6253 37.5748 41.1111C38.3086 40.3773 39.2828 39.9737 40.3207 39.9737C41.3585 39.9737 42.3328 40.3773 43.0666 41.1111C44.5808 42.6253 44.5807 45.0888 43.0666 46.6014ZM43.802 47.3383C45.7253 45.415 45.7253 42.2976 43.8019 40.3757C42.8403 39.4141 41.5802 38.934 40.3207 38.934C39.0611 38.934 37.801 39.4141 36.8394 40.3757C34.9161 42.2991 34.916 45.4165 36.8394 47.3384C37.8011 48.3 39.0611 48.7801 40.3207 48.7801C41.5802 48.7801 42.8403 48.3 43.802 47.3383Z" fill="#224089" stroke="#353939" stroke-width="0.3"/>
<path d="M46.9224 31.7637L46.9224 31.7636C47.6562 31.0298 48.6305 30.6261 49.6683 30.6261C50.7062 30.6261 51.6805 31.0298 52.4142 31.7636C53.9269 33.2762 53.927 35.7397 52.4142 37.254C51.6805 37.9877 50.7062 38.3914 49.6683 38.3914C48.6305 38.3914 47.6562 37.9877 46.9224 37.254C45.4082 35.7398 45.4083 33.2763 46.9224 31.7637ZM49.6683 29.585C48.4088 29.585 47.1487 30.0651 46.187 31.0267C44.2637 32.95 44.2637 36.0675 46.187 37.9893C47.1487 38.951 48.4088 39.4311 49.6683 39.4311C50.9279 39.4311 52.188 38.951 53.1496 37.9893C55.0729 36.066 55.073 32.9486 53.1496 31.0267C52.1879 30.0651 50.9279 29.585 49.6683 29.585Z" fill="#224089" stroke="#353939" stroke-width="0.3"/>
<path d="M37.8208 60.0553L37.8209 60.0552C38.5546 59.3214 39.5289 58.9178 40.5668 58.9178C41.6046 58.9178 42.5789 59.3214 43.3127 60.0552C44.0465 60.789 44.4501 61.7633 44.4501 62.8011C44.4501 63.839 44.0465 64.8133 43.3127 65.547C42.5789 66.2808 41.6046 66.6845 40.5668 66.6845C39.5289 66.6845 38.5546 66.2808 37.8209 65.547C37.0871 64.8133 36.6834 63.839 36.6834 62.8011C36.6834 61.7632 37.0871 60.7875 37.8208 60.0553ZM40.5668 67.7242C41.8263 67.7242 43.0864 67.2441 44.0481 66.2824C45.9714 64.3591 45.9714 61.2417 44.048 59.3198C43.0864 58.3582 41.8263 57.8781 40.5668 57.8781C39.3074 57.8781 38.0457 58.3566 37.0854 59.3184C35.1622 61.2417 35.1621 64.359 37.0854 66.2809C38.0456 67.2426 39.3072 67.7242 40.5668 67.7242Z" fill="#224089" stroke="#353939" stroke-width="0.3"/>
<path d="M62.0081 46.8489L62.008 46.849C61.2742 47.5828 60.2999 47.9865 59.2621 47.9865C58.2242 47.9865 57.25 47.5828 56.5162 46.849C55.7824 46.1153 55.3787 45.141 55.3787 44.1031C55.3787 43.0653 55.7824 42.091 56.5162 41.3572C57.25 40.6234 58.2242 40.2198 59.2621 40.2198C60.2999 40.2198 61.2742 40.6234 62.008 41.3572C62.7418 42.091 63.1455 43.0653 63.1455 44.1031C63.1455 45.1411 62.7417 46.1167 62.0081 46.8489ZM59.2621 39.1801C58.0025 39.1801 56.7424 39.6602 55.7808 40.6218C53.8575 42.5451 53.8574 45.6625 55.7808 47.5844C56.7424 48.5461 58.0025 49.0262 59.2621 49.0262C60.5216 49.0262 61.7817 48.5461 62.7434 47.5844C64.6667 45.6611 64.6667 42.5437 62.7433 40.6218C61.7832 39.6617 60.5217 39.1801 59.2621 39.1801Z" fill="#224089" stroke="#353939" stroke-width="0.3"/>
<path d="M47.4146 69.6504L47.4146 69.6503C48.1484 68.9165 49.1227 68.5129 50.1605 68.5129C51.1984 68.5129 52.1726 68.9165 52.9064 69.6503C54.4191 71.1645 54.4191 73.6265 52.9064 75.1407C52.1726 75.8745 51.1984 76.2781 50.1605 76.2781C49.1227 76.2781 48.1484 75.8745 47.4146 75.1407C45.9004 73.6265 45.9005 71.163 47.4146 69.6504ZM50.1605 67.4717C48.901 67.4717 47.6409 67.9518 46.6792 68.9135C44.7559 70.8368 44.7558 73.9542 46.6793 75.8761C47.6409 76.8392 48.901 77.3193 50.1605 77.3193C51.4201 77.3193 52.6802 76.8392 53.6418 75.8775C55.5651 73.9542 55.5652 70.8368 53.6418 68.9149C52.6802 67.9534 51.4202 67.4717 50.1605 67.4717Z" fill="#224089" stroke="#353939" stroke-width="0.3"/>
<path d="M56.0269 66.5299L56.027 66.53C56.9885 67.49 58.2485 67.9716 59.5082 67.9716C60.7677 67.9716 62.0278 67.4915 62.9895 66.5299C64.9128 64.6066 64.9128 61.4891 62.9894 59.5672C62.0278 58.6056 60.7677 58.1255 59.5082 58.1255C58.2486 58.1255 56.9885 58.6056 56.0269 59.5673C54.1036 61.4906 54.1035 64.608 56.0269 66.5299ZM56.7637 60.3027L56.7637 60.3027C57.4975 59.5689 58.4718 59.1652 59.5097 59.1652C60.5475 59.1652 61.5218 59.5689 62.2556 60.3027C63.7698 61.8168 63.7697 64.2803 62.2556 65.7929L62.2556 65.793C61.5218 66.5268 60.5475 66.9305 59.5097 66.9305C58.4718 66.9305 57.4975 66.5268 56.7637 65.793C55.2496 64.2788 55.2496 61.8153 56.7637 60.3027Z" fill="#224089" stroke="#353939" stroke-width="0.3"/>
<path d="M72.3372 50.2184L72.3371 50.2184C71.3755 49.2567 70.1154 48.7766 68.8558 48.7766C67.5963 48.7766 66.3362 49.2567 65.3745 50.2184C63.4512 52.1417 63.4512 55.2591 65.3745 57.181C66.3362 58.1427 67.5963 58.6227 68.8558 58.6227C70.1154 58.6227 71.3755 58.1427 72.3371 57.181C74.259 55.2591 74.2589 52.1417 72.3372 50.2184ZM71.6018 56.4441L71.6017 56.4441C70.8664 57.1794 69.8921 57.5831 68.8558 57.5831C67.818 57.5831 66.8437 57.1794 66.1099 56.4456C65.3761 55.7118 64.9724 54.7375 64.9724 53.6997C64.9724 52.6618 65.3761 51.6876 66.1099 50.9538C66.8437 50.22 67.818 49.8163 68.8558 49.8163C69.8937 49.8163 70.868 50.22 71.6017 50.9538C73.1159 52.468 73.1159 54.9314 71.6018 56.4441Z" fill="#224089" stroke="#353939" stroke-width="0.3"/>
<path d="M49.9144 48.5292C48.6549 48.5292 47.3948 49.0093 46.4331 49.971C44.5098 51.8943 44.5098 55.0117 46.4331 56.9336C47.3948 57.8952 48.6549 58.3753 49.9144 58.3753C51.174 58.3753 52.4341 57.8952 53.3957 56.9336C55.319 55.0102 55.3191 51.8928 53.3957 49.9709C52.434 49.0093 51.174 48.5292 49.9144 48.5292ZM52.6603 56.1982C51.9265 56.9305 50.9522 57.3342 49.9144 57.3342C48.8766 57.3342 47.9023 56.9305 47.1685 56.1967C46.4362 55.4644 46.0325 54.4901 46.0325 53.4523C46.0325 52.4144 46.4362 51.4401 47.17 50.7063C47.9023 49.9741 48.8765 49.5704 49.9144 49.5704C50.9523 49.5704 51.9265 49.974 52.6603 50.7078C53.3926 51.4401 53.7963 52.4144 53.7963 53.4523C53.7963 54.4901 53.3927 55.4644 52.6603 56.1982Z" fill="#F57E20" stroke="#F57E20" stroke-width="0.3"/>
<path d="M1.41595 13.4516H0V0.708008H10.7613V2.12396H1.41595V13.4516Z" fill="#224089"/>
<path d="M99.6128 13.4516H98.1969V2.12396H88.8516V0.708008H99.6128V13.4516Z" fill="#224089"/>
<path d="M99.6128 99.4001H88.8516V97.9841H98.1969V86.6565H99.6128V99.4001Z" fill="#224089"/>
<path d="M10.7613 99.4001H0V86.6565H1.41595V97.9841H10.7613V99.4001Z" fill="#224089"/>
<path d="M4.81904 81.3754L49.5576 1.53427L94.2961 81.3754H4.81904Z" stroke="#F57E20" stroke-width="1.5"/>
</svg>
