<svg width="35" height="35" viewBox="0 0 35 35" fill="" xmlns="http://www.w3.org/2000/svg">
<circle cx="17.5" cy="17.5" r="17" stroke="#224089"/>
<path d="M22.3165 11.7667C19.9609 9.4111 16.1266 9.4111 13.771 11.7667C12.7909 12.7468 12.1719 14.0466 12.031 15.429C11.89 16.808 12.2338 18.2076 12.9973 19.3665C13.0007 19.3734 13.0041 19.3768 13.0076 19.3837L17.7085 25.8315C17.7875 25.9381 17.9113 26 18.042 26C18.1727 26 18.2965 25.9381 18.3756 25.8315L23.0765 19.3837C23.0799 19.3768 23.0833 19.3734 23.0868 19.3665C23.8502 18.2076 24.1941 16.8115 24.0531 15.429C23.9155 14.0501 23.2965 12.7468 22.3165 11.7667ZM22.4059 18.9057L18.042 24.8858L13.6781 18.9057C13.0213 17.9084 12.729 16.7014 12.8494 15.515C12.9698 14.3217 13.5028 13.2007 14.3522 12.3547C16.3879 10.319 19.6961 10.319 21.7319 12.3547C22.5778 13.2007 23.1108 14.3252 23.2346 15.515C23.355 16.7014 23.0593 17.905 22.4059 18.9057Z" fill="#F57E20" stroke="#F57E20" stroke-width="0.2"/>
<path d="M18.0416 13.1047C16.6557 13.1047 15.5312 14.2327 15.5312 15.6151C15.5312 16.9975 16.6592 18.1254 18.0416 18.1254C19.424 18.1254 20.5519 16.9975 20.5519 15.6151C20.5519 14.2327 19.4274 13.1047 18.0416 13.1047ZM18.0416 17.3001C17.1131 17.3001 16.3566 16.5436 16.3566 15.6151C16.3566 14.6866 17.1131 13.9301 18.0416 13.9301C18.9701 13.9301 19.7266 14.6866 19.7266 15.6151C19.7266 16.5436 18.9701 17.3001 18.0416 17.3001Z" fill="#F57E20" stroke="#F57E20" stroke-width="0.2"/>
</svg>
