<svg width="500" height="568" viewBox="0 0 500 568" fill="none" xmlns="http://www.w3.org/2000/svg">
<mask id="mask0" mask-type="alpha" maskUnits="userSpaceOnUse" x="0" y="0" width="529" height="568">
<rect width="529" height="568" fill="#C4C4C4"/>
</mask>
<g mask="url(#mask0)">
<path d="M315.344 263.529C285.877 255.114 251.681 349.563 224.048 370.941C186.81 399.751 92.5778 391.583 89.2445 405.751C87.6875 412.375 93.7929 424.701 100.146 430C127.68 452.959 214.512 454.025 263.513 417.322C314.607 379.05 350.436 273.551 315.344 263.529Z" fill="#0C2258"/>
<path d="M420.666 463.087C432.807 461.903 425.855 416.6 430.522 380.184C436.063 336.956 464.203 295.064 430.522 274.844C398.021 255.333 327.252 244.116 300.105 267.002C266.32 295.481 280.793 439.694 283.284 449.467C287.133 464.568 389.618 466.117 420.666 463.087Z" fill="#224089"/>
<path d="M283.201 449.11C281.82 442.76 277.544 402.801 278.132 361.442C286.015 340.987 293.237 322.926 296.904 311.788C302.326 295.317 312.11 271.577 317.841 258.01C323.264 256.407 329.228 255.352 335.529 254.78C327.54 271.652 315.439 311.492 315.439 311.492L368.809 318.894C370.005 311.013 381.675 271.514 385.566 258.457C392.289 259.887 398.837 261.638 405 263.648C388.8 286.478 378.016 376.844 390.171 400.022C392.189 403.871 394.582 407.479 397.178 410.829L405.043 410.102C405.043 410.102 414.104 421.153 420.47 432.684C423.762 435.025 426.529 436.764 428.317 437.834C448.943 515.198 415.374 591.006 408.276 654.392C404.644 686.839 420.021 789.912 410.729 798.251C395.278 812.117 385.674 806.618 375.779 804.751C357.292 801.262 347.058 606.304 344.06 522.288C333.742 551.719 323.776 580.379 322.048 598.061C317.011 649.553 355.762 779.312 345.293 800.507C341.181 808.834 326.11 806.813 315.439 803.883C277.609 793.493 263.127 652.621 261.817 591.995C260.945 551.592 273.605 489.738 283.201 449.11Z" fill="#F57E20"/>
<path d="M261.82 591.995C260.948 551.592 273.608 489.738 283.204 449.11C281.823 442.761 277.546 402.802 278.135 361.443C286.018 340.988 293.239 322.927 296.906 311.789C302.329 295.318 312.113 271.578 317.844 258.011C323.267 256.408 329.231 255.353 335.532 254.781C327.543 271.653 315.442 311.493 315.442 311.493L329.741 313.476C327.807 321.074 325.819 328.897 323.851 336.66C313.192 378.704 291.282 431.703 297.498 479.076C303.716 526.45 292.761 548.064 290.985 590.404C289.208 632.743 287.431 684.558 298.683 722.753C306.702 749.977 333.592 769.377 346.962 783.53C347.356 791.331 346.918 797.224 345.295 800.507C341.183 808.834 326.111 806.813 315.441 803.883C277.612 793.493 263.129 652.621 261.82 591.995Z" fill="#E36400"/>
<path d="M96.773 320.9H179.18V493.783H96.773V320.9Z" fill="#E2B681"/>
<path d="M179.182 320.9H318.086V493.783H179.182V320.9Z" fill="#FFD8AA"/>
<path d="M238.102 320.9H259.164V381.035H238.102V320.9Z" fill="white"/>
<path d="M127.445 320.9H148.508V381.035H127.445V320.9Z" fill="white"/>
<path d="M137.011 459.016H174.406V485.347H137.011V459.016Z" fill="white"/>
<path d="M169.478 460.643H171.203V483.721H169.478V460.643Z" fill="black"/>
<path d="M140.216 460.643H141.941V483.721H140.216V460.643Z" fill="black"/>
<path d="M165.643 466.63H167.367V483.721H165.643V466.63Z" fill="black"/>
<path d="M162.254 466.63H164.918V483.721H162.254V466.63Z" fill="black"/>
<path d="M152.767 466.63H154.492V483.721H152.767V466.63Z" fill="black"/>
<path d="M149.379 466.63H152.043V483.721H149.379V466.63Z" fill="black"/>
<path d="M159.314 464.845H161.039V483.721H159.314V464.845Z" fill="black"/>
<path d="M155.926 466.63H158.59V483.721H155.926V466.63Z" fill="black"/>
<path d="M146.655 466.63H148.379V483.721H146.655V466.63Z" fill="black"/>
<path d="M143.265 466.63H145.93V483.721H143.265V466.63Z" fill="black"/>
<path d="M335.03 191.304C335.03 191.304 335.489 170.33 354.752 169.076C382.038 167.298 390.29 197.17 385.311 207.831C378.355 222.732 368.338 218.255 358.979 212.654C349.616 207.054 335.03 191.304 335.03 191.304Z" fill="#224089"/>
<path d="M372.617 200.114C372.617 200.114 352.31 174.281 338.992 170.832C320.782 166.116 314.495 182.129 317.875 189.679C321.254 197.23 339.619 211.535 344.789 211.847C349.958 212.16 372.617 200.114 372.617 200.114Z" fill="#0C2258"/>
<path d="M334.699 201.174C334.699 201.174 328.783 195.972 335.719 185.937C342.658 175.901 378.135 200.475 380.507 210.226C384.041 224.757 379.012 233.899 379.012 233.899C379.012 233.899 337.176 218.192 334.699 201.174Z" fill="#FFBF5F"/>
<path d="M373.492 217.93C382.616 229.41 380.187 273.591 380.187 273.591C378.192 280.119 337.473 287.119 329.797 275.642C327.55 272.282 330.357 266.311 335.322 260.445L363.781 228.953C363.781 228.953 371.204 215.055 373.492 217.93Z" fill="#FDE7D7"/>
<path d="M358.062 235.282C365.637 236.274 374.861 236.665 374.861 236.665C374.861 236.665 376.962 248.641 359.086 255.267C352.221 257.81 345.474 257.28 339.479 255.842L358.062 235.282Z" fill="#F1D3BE"/>
<path d="M364.967 201.6L374.642 228.325C377.125 237.378 371.978 246.791 362.993 249.518C355.815 251.697 351.124 251.853 341.829 251.017C334.08 250.319 329.894 243.037 329.582 232.922C329.177 219.801 332.535 207.6 334.697 201.172C339.626 186.52 357.386 184.644 364.967 201.6Z" fill="#FDE7D7"/>
<path d="M350.172 227.181C350.172 227.181 343.834 228.954 334.78 228.122C334.78 228.122 334.717 234.009 338.346 235.94C341.971 237.87 348.257 234.263 350.172 227.181Z" fill="white"/>
<path d="M364.577 212.536C364.896 210.803 364.948 209.046 364.897 207.285C364.796 203.938 365.424 198.943 370.46 201.236C377.786 204.57 378.383 220.83 370.154 222.436C364.043 223.63 363.773 216.9 364.577 212.536Z" fill="#FDE7D7"/>
<path d="M432.784 283.53C406.313 283.176 399.156 369.65 380.951 393.721C356.419 426.159 276.01 440.653 276.434 453.218C276.633 459.093 284.51 467.989 291.005 470.97C319.152 483.887 391.785 465.145 424.34 423.467C458.286 380.008 464.305 283.952 432.784 283.53Z" fill="#224089"/>
<path d="M439.137 285.134C440.459 291.786 442.417 303.898 440.241 308.518C437.175 315.03 430.626 331.23 430.985 350.803C431.346 370.376 423.971 398.664 401.611 408.631C379.25 418.597 370.08 446.016 345.746 455.328C321.41 464.64 310.417 457.886 293.889 459.007C286.858 459.484 282.987 460.989 280.851 462.562C283.722 466.14 287.558 469.388 291.004 470.969C319.152 483.886 391.785 465.144 424.34 423.466C455.784 383.209 463.262 297.831 439.137 285.134Z" fill="#0C2258"/>
<path d="M286.005 442.847C279.885 437.552 270.911 438.187 259.717 431.95C255.426 429.559 254.186 432.984 261.908 439.781C263.985 441.61 267.122 442.741 266.622 444.115C265.692 446.672 261.372 446.442 243.271 442.175C238.372 441.019 238.671 446.434 239.116 449.205C239.553 451.927 241.002 455.164 244.893 457.76C253.718 463.65 278.435 469.85 285.977 463.742C287.862 462.215 289.102 460.425 289.904 458.6C292.301 453.143 290.514 446.746 286.005 442.847Z" fill="#FDE7D7"/>
<path d="M362.442 552.061C362.785 588.923 360.565 617.792 368.559 650.657C376.553 683.521 389.433 707.381 389.877 738.975C390.137 757.508 402.621 757.684 413.257 761.023C414.218 780.425 414.026 795.295 410.731 798.251C395.28 812.117 385.676 806.618 375.781 804.751C357.295 801.262 347.061 606.304 344.063 522.288C344.063 522.289 362.098 515.198 362.442 552.061Z" fill="#E36400"/>
</g>
</svg>
