<svg width="20" height="20" viewBox="0 0 20 20" fill="none" xmlns="http://www.w3.org/2000/svg">
<path fill-rule="evenodd" clip-rule="evenodd" d="M0.440771 0C0.165289 0 0 0.176739 0 0.471305V16.3189C0 16.5546 0.220386 16.7902 0.440771 16.7902H2.53444V19.5592C2.53444 19.9716 2.97521 20.1483 3.25069 19.8537L6.77686 16.7902H19.449C19.6694 16.7902 20 16.5546 20 16.3189V0.471305C20 0.176739 19.7245 0 19.449 0H0.440771ZM19.0083 0.94261V15.8476H6.66667C6.50138 15.8476 6.44628 15.8476 6.33609 16.0244L3.36088 18.4987V16.3189C3.36088 16.0833 3.25069 15.8476 3.0303 15.8476H0.881543V0.94261H19.0083Z" fill="#224089"/>
<path fill-rule="evenodd" clip-rule="evenodd" d="M4.29799 7.89429H15.7029C16.2539 7.89429 16.2539 8.89581 15.7029 8.89581H4.29799C3.74702 8.89581 3.74702 7.89429 4.29799 7.89429Z" fill="#224089"/>
<path fill-rule="evenodd" clip-rule="evenodd" d="M4.29799 12.1951H15.7029C16.2539 12.1951 16.2539 13.1377 15.7029 13.1377H4.29799C3.74702 13.1377 3.74702 12.1951 4.29799 12.1951Z" fill="#224089"/>
<path fill-rule="evenodd" clip-rule="evenodd" d="M4.29799 3.65259H15.7029C16.2539 3.65259 16.2539 4.5952 15.7029 4.5952H4.29799C3.74702 4.5952 3.74702 3.65259 4.29799 3.65259Z" fill="#224089"/>
</svg>
