<svg width="45" height="45" viewBox="0 0 45 45" fill="" xmlns="http://www.w3.org/2000/svg">
<circle cx="22.5" cy="22.5" r="22.5" fill=""/>
<path d="M19 15L27.6592 22.6109M19 30L27.6592 22.3891" stroke="white" stroke-width="1.5"/>
</svg>
