<svg width="6" height="6" viewBox="0 0 6 6" fill="none" xmlns="http://www.w3.org/2000/svg">
<path d="M1.91406 5.8125L0.734375 4.89844C1.10938 4.47656 1.5 4.07292 1.90625 3.6875C2.06771 3.53125 2.16927 3.43229 2.21094 3.39062C2.08073 3.36979 1.70833 3.28385 1.09375 3.13281C0.651042 3.02344 0.359375 2.94271 0.21875 2.89062L0.679688 1.51562C1.36198 1.79167 1.97135 2.09635 2.50781 2.42969C2.38281 1.58073 2.32031 0.888021 2.32031 0.351562H3.71094C3.71094 0.731771 3.64062 1.42969 3.5 2.44531C3.60417 2.40365 3.82812 2.30208 4.17188 2.14062C4.64062 1.92708 5.07292 1.74479 5.46875 1.59375L5.88281 3.00781C5.30469 3.13802 4.63542 3.26562 3.875 3.39062L4.8125 4.44531C5 4.65885 5.14844 4.83333 5.25781 4.96875L4.0625 5.75781L3.00781 4.01562C2.6901 4.57812 2.32552 5.17708 1.91406 5.8125Z" fill="#F57E20"/>
</svg>
