<svg width="26" height="24" viewBox="0 0 26 24" fill="" xmlns="http://www.w3.org/2000/svg">
<path d="M20.4202 23.9764C20.5159 23.978 20.6108 23.9587 20.6977 23.9198C20.7847 23.8809 20.8615 23.8235 20.9224 23.7519C20.9834 23.6802 21.0269 23.5961 21.0498 23.5059C21.0726 23.4157 21.0743 23.3216 21.0545 23.2307L19.3794 15.3055L25.5348 9.85148C25.6251 9.77146 25.6898 9.6679 25.7211 9.55314C25.7524 9.43839 25.7491 9.3173 25.7114 9.20437C25.6737 9.09143 25.6033 8.99141 25.5086 8.91627C25.4139 8.84112 25.2989 8.79403 25.1774 8.78061L16.8958 7.88319L13.4519 0.512891C13.4015 0.404365 13.3199 0.312263 13.2169 0.247656C13.1139 0.18305 12.9938 0.148682 12.8712 0.148682C12.7485 0.148682 12.6285 0.18305 12.5255 0.247656C12.4225 0.312263 12.3409 0.404365 12.2905 0.512891L8.84653 7.88319L0.564942 8.78061C0.443417 8.79403 0.328441 8.84112 0.233755 8.91627C0.139069 8.99141 0.0686766 9.09143 0.0309898 9.20437C-0.00669695 9.3173 -0.0100845 9.43839 0.0212322 9.55314C0.052549 9.6679 0.117245 9.77146 0.207591 9.85148L6.36295 15.3055L4.68787 23.2307C4.66296 23.3471 4.67316 23.468 4.71725 23.5789C4.76134 23.6898 4.83744 23.786 4.93643 23.856C5.03543 23.926 5.15312 23.9669 5.27541 23.9736C5.3977 23.9803 5.51939 23.9527 5.62591 23.894L12.8712 19.8967L20.1165 23.894C20.209 23.9458 20.3134 23.9741 20.4202 23.9764ZM19.5268 22.1468L13.1839 18.6481C13.0884 18.5959 12.9807 18.5685 12.8712 18.5685C12.7616 18.5685 12.6539 18.5959 12.5585 18.6481L6.21554 22.1468L7.68514 15.2101C7.70709 15.1051 7.70051 14.9963 7.66605 14.8944C7.6316 14.7926 7.57044 14.7012 7.4886 14.6292L2.10155 9.86014L9.35128 9.07112C9.46102 9.05913 9.56566 9.01965 9.65494 8.95656C9.74421 8.89347 9.81505 8.80894 9.86051 8.71125L12.8712 2.26876L15.8819 8.71125C15.9273 8.80894 15.9981 8.89347 16.0874 8.95656C16.1767 9.01965 16.2813 9.05913 16.3911 9.07112L23.6408 9.86014L18.2538 14.6292C18.1719 14.7012 18.1108 14.7926 18.0763 14.8944C18.0418 14.9963 18.0353 15.1051 18.0572 15.2101L19.5268 22.1468Z" fill=""/>
</svg>
