<svg width="21" height="19" viewBox="0 0 21 19" fill="" xmlns="http://www.w3.org/2000/svg">
    <path fill-rule="evenodd" clip-rule="evenodd" d="M9.97205 0L12.9814 6.37267L20.0031 7.25776L14.8696 12.0963L16.1677 19L9.97205 15.5776L3.8354 19L5.13354 12.0963L0 7.25776L7.02174 6.37267L9.97205 0Z" fill=""/>
</svg>
